EESchema Schematic File Version 4
EELAYER 30 0
EELAYER END
$Descr A4 11693 8268
encoding utf-8
Sheet 1 1
Title ""
Date ""
Rev ""
Comp ""
Comment1 ""
Comment2 ""
Comment3 ""
Comment4 ""
$EndDescr
$Comp
L Regulator_Linear:LM317_TO-220 U1
U 1 1 5F1E9290
P 6300 1550
F 0 "U1" H 6300 1792 50  0000 C CNN
F 1 "LM317_TO-220" H 6300 1701 50  0000 C CNN
F 2 "Package_TO_SOT_THT:TO-220-3_Vertical" H 6300 1800 50  0001 C CIN
F 3 "http://www.ti.com/lit/ds/symlink/lm317.pdf" H 6300 1550 50  0001 C CNN
	1    6300 1550
	1    0    0    -1  
$EndComp
$Comp
L Regulator_Linear:LM337_TO220 U2
U 1 1 5F1E9568
P 6300 4000
F 0 "U2" H 6300 3758 50  0000 C CNN
F 1 "LM337_TO220" H 6300 3849 50  0000 C CNN
F 2 "Package_TO_SOT_THT:TO-220-3_Vertical" H 6300 3800 50  0001 C CIN
F 3 "http://www.ti.com/lit/ds/symlink/lm337-n.pdf" H 6300 4000 50  0001 C CNN
	1    6300 4000
	1    0    0    1   
$EndComp
$Comp
L Diode:1N4002 D2
U 1 1 5F1E9E19
P 6300 1150
F 0 "D2" H 6300 1367 50  0000 C CNN
F 1 "1N4002" H 6300 1276 50  0000 C CNN
F 2 "Diode_THT:D_DO-41_SOD81_P10.16mm_Horizontal" H 6300 975 50  0001 C CNN
F 3 "http://www.vishay.com/docs/88503/1n4001.pdf" H 6300 1150 50  0001 C CNN
	1    6300 1150
	1    0    0    -1  
$EndComp
$Comp
L Diode:1N4002 D3
U 1 1 5F1EA393
P 7500 1750
F 0 "D3" V 7454 1830 50  0000 L CNN
F 1 "1N4002" V 7545 1830 50  0000 L CNN
F 2 "Diode_THT:D_DO-41_SOD81_P10.16mm_Horizontal" H 7500 1575 50  0001 C CNN
F 3 "http://www.vishay.com/docs/88503/1n4001.pdf" H 7500 1750 50  0001 C CNN
	1    7500 1750
	0    1    1    0   
$EndComp
$Comp
L Diode:1N4002 D5
U 1 1 5F1EAF5D
P 7500 4200
F 0 "D5" V 7546 4120 50  0000 R CNN
F 1 "1N4002" V 7455 4120 50  0000 R CNN
F 2 "Diode_THT:D_DO-41_SOD81_P10.16mm_Horizontal" H 7500 4025 50  0001 C CNN
F 3 "http://www.vishay.com/docs/88503/1n4001.pdf" H 7500 4200 50  0001 C CNN
	1    7500 4200
	0    -1   -1   0   
$EndComp
$Comp
L Diode:1N4002 D4
U 1 1 5F1EBA82
P 6300 3600
F 0 "D4" H 6300 3383 50  0000 C CNN
F 1 "1N4002" H 6300 3474 50  0000 C CNN
F 2 "Diode_THT:D_DO-41_SOD81_P10.16mm_Horizontal" H 6300 3425 50  0001 C CNN
F 3 "http://www.vishay.com/docs/88503/1n4001.pdf" H 6300 3600 50  0001 C CNN
	1    6300 3600
	-1   0    0    1   
$EndComp
$Comp
L Device:R R3
U 1 1 5F1EFA5D
P 6650 4200
F 0 "R3" H 6720 4246 50  0000 L CNN
F 1 "240R" H 6720 4155 50  0000 L CNN
F 2 "Resistor_THT:R_Axial_DIN0207_L6.3mm_D2.5mm_P10.16mm_Horizontal" V 6580 4200 50  0001 C CNN
F 3 "~" H 6650 4200 50  0001 C CNN
	1    6650 4200
	1    0    0    -1  
$EndComp
$Comp
L Device:R R4
U 1 1 5F1EFDBF
P 6300 4600
F 0 "R4" H 6370 4646 50  0000 L CNN
F 1 "1k" H 6370 4555 50  0000 L CNN
F 2 "Resistor_THT:R_Axial_DIN0207_L6.3mm_D2.5mm_P10.16mm_Horizontal" V 6230 4600 50  0001 C CNN
F 3 "~" H 6300 4600 50  0001 C CNN
	1    6300 4600
	1    0    0    -1  
$EndComp
$Comp
L Device:R_POT_TRIM RV2
U 1 1 5F1F36EF
P 6300 5000
F 0 "RV2" V 6185 5000 50  0000 C CNN
F 1 "2K" V 6094 5000 50  0000 C CNN
F 2 "project_lib:Trimmer" H 6300 5000 50  0001 C CNN
F 3 "~" H 6300 5000 50  0001 C CNN
	1    6300 5000
	0    -1   -1   0   
$EndComp
$Comp
L Device:R R1
U 1 1 5F1F5A2F
P 6650 1750
F 0 "R1" H 6720 1796 50  0000 L CNN
F 1 "240R" H 6720 1705 50  0000 L CNN
F 2 "Resistor_THT:R_Axial_DIN0207_L6.3mm_D2.5mm_P10.16mm_Horizontal" V 6580 1750 50  0001 C CNN
F 3 "~" H 6650 1750 50  0001 C CNN
	1    6650 1750
	1    0    0    -1  
$EndComp
$Comp
L Device:R R2
U 1 1 5F1F5A35
P 6300 2100
F 0 "R2" H 6370 2146 50  0000 L CNN
F 1 "1k" H 6370 2055 50  0000 L CNN
F 2 "Resistor_THT:R_Axial_DIN0207_L6.3mm_D2.5mm_P10.16mm_Horizontal" V 6230 2100 50  0001 C CNN
F 3 "~" H 6300 2100 50  0001 C CNN
	1    6300 2100
	1    0    0    -1  
$EndComp
$Comp
L Device:R_POT_TRIM RV1
U 1 1 5F1F5A3B
P 6300 2500
F 0 "RV1" V 6185 2500 50  0000 C CNN
F 1 "2K" V 6094 2500 50  0000 C CNN
F 2 "project_lib:Trimmer" H 6300 2500 50  0001 C CNN
F 3 "~" H 6300 2500 50  0001 C CNN
	1    6300 2500
	0    -1   -1   0   
$EndComp
Wire Wire Line
	6150 2500 6000 2500
Wire Wire Line
	6000 2300 6300 2300
Wire Wire Line
	6300 2300 6300 2350
Wire Wire Line
	6300 2250 6300 2300
Connection ~ 6300 2300
Wire Wire Line
	6650 1900 6300 1900
Wire Wire Line
	6300 1900 6300 1850
Wire Wire Line
	6300 1900 6300 1950
Connection ~ 6300 1900
Wire Wire Line
	6000 2300 6000 2500
Wire Wire Line
	6600 1550 6650 1550
Wire Wire Line
	6650 1550 6650 1600
$Comp
L Device:CP C9
U 1 1 5F20A3D3
P 6650 2150
F 0 "C9" H 6768 2196 50  0000 L CNN
F 1 "10µF" H 6768 2105 50  0000 L CNN
F 2 "Capacitor_THT:C_Radial_D6.3mm_H5.0mm_P2.50mm" H 6688 2000 50  0001 C CNN
F 3 "~" H 6650 2150 50  0001 C CNN
	1    6650 2150
	1    0    0    -1  
$EndComp
Wire Wire Line
	6650 2000 6650 1900
Connection ~ 6650 1900
Wire Wire Line
	6650 2300 6650 2500
Wire Wire Line
	6650 2500 6450 2500
Wire Wire Line
	6650 2500 6650 2600
Connection ~ 6650 2500
$Comp
L power:Earth #PWR0101
U 1 1 5F20B881
P 6650 2600
F 0 "#PWR0101" H 6650 2350 50  0001 C CNN
F 1 "Earth" H 6650 2450 50  0001 C CNN
F 2 "" H 6650 2600 50  0001 C CNN
F 3 "~" H 6650 2600 50  0001 C CNN
	1    6650 2600
	1    0    0    -1  
$EndComp
Wire Wire Line
	7100 1600 7100 1550
Connection ~ 6650 1550
Wire Wire Line
	7100 1900 6650 1900
Wire Wire Line
	6650 1550 6650 1150
Wire Wire Line
	6650 1150 6450 1150
Wire Wire Line
	6150 1150 5900 1150
Wire Wire Line
	5900 1150 5900 1550
Wire Wire Line
	5900 1550 6000 1550
Wire Wire Line
	6650 4350 6650 4400
Wire Wire Line
	6650 4400 6300 4400
Wire Wire Line
	6300 4300 6300 4400
Connection ~ 6300 4400
Wire Wire Line
	6300 4400 6300 4450
Wire Wire Line
	6300 4850 6300 4800
Wire Wire Line
	6300 4800 6050 4800
Wire Wire Line
	6050 4800 6050 5000
Wire Wire Line
	6050 5000 6150 5000
Connection ~ 6300 4800
Wire Wire Line
	6300 4800 6300 4750
$Comp
L Device:CP C12
U 1 1 5F21858E
P 6650 4650
F 0 "C12" H 6532 4604 50  0000 R CNN
F 1 "10µF" H 6532 4695 50  0000 R CNN
F 2 "Capacitor_THT:C_Radial_D6.3mm_H5.0mm_P2.50mm" H 6688 4500 50  0001 C CNN
F 3 "~" H 6650 4650 50  0001 C CNN
	1    6650 4650
	-1   0    0    1   
$EndComp
Wire Wire Line
	6650 4500 6650 4400
Connection ~ 6650 4400
Wire Wire Line
	7100 4350 7100 4400
Wire Wire Line
	7100 4400 6650 4400
Wire Wire Line
	7100 4050 7100 4000
Wire Wire Line
	7100 4000 6650 4000
Wire Wire Line
	6650 4000 6650 4050
Connection ~ 6650 4000
Wire Wire Line
	6650 4000 6600 4000
Wire Wire Line
	6650 5000 6450 5000
$Comp
L power:Earth #PWR0102
U 1 1 5F21ED44
P 6650 5050
F 0 "#PWR0102" H 6650 4800 50  0001 C CNN
F 1 "Earth" H 6650 4900 50  0001 C CNN
F 2 "" H 6650 5050 50  0001 C CNN
F 3 "~" H 6650 5050 50  0001 C CNN
	1    6650 5050
	1    0    0    -1  
$EndComp
Wire Wire Line
	6650 4800 6650 5000
Connection ~ 6650 5000
Wire Wire Line
	6650 5000 6650 5050
Wire Wire Line
	6450 3600 6650 3600
Wire Wire Line
	6650 3600 6650 4000
Wire Wire Line
	6000 4000 5900 4000
Wire Wire Line
	5900 4000 5900 3600
Wire Wire Line
	6150 3600 5900 3600
$Comp
L Device:C C7
U 1 1 5F22428B
P 5650 1750
F 0 "C7" H 5765 1796 50  0000 L CNN
F 1 "100nF" H 5765 1705 50  0000 L CNN
F 2 "Capacitor_THT:C_Disc_D3.4mm_W2.1mm_P2.50mm" H 5688 1600 50  0001 C CNN
F 3 "~" H 5650 1750 50  0001 C CNN
	1    5650 1750
	1    0    0    -1  
$EndComp
$Comp
L Device:C C10
U 1 1 5F2249A4
P 5650 4200
F 0 "C10" H 5765 4246 50  0000 L CNN
F 1 "100nF" H 5765 4155 50  0000 L CNN
F 2 "Capacitor_THT:C_Disc_D3.4mm_W2.1mm_P2.50mm" H 5688 4050 50  0001 C CNN
F 3 "~" H 5650 4200 50  0001 C CNN
	1    5650 4200
	1    0    0    -1  
$EndComp
Wire Wire Line
	5650 4050 5650 4000
Wire Wire Line
	5650 4000 5900 4000
Connection ~ 5900 4000
Wire Wire Line
	5650 4350 5650 4450
$Comp
L power:Earth #PWR0103
U 1 1 5F2272C5
P 5650 4450
F 0 "#PWR0103" H 5650 4200 50  0001 C CNN
F 1 "Earth" H 5650 4300 50  0001 C CNN
F 2 "" H 5650 4450 50  0001 C CNN
F 3 "~" H 5650 4450 50  0001 C CNN
	1    5650 4450
	1    0    0    -1  
$EndComp
Wire Wire Line
	5650 1550 5650 1600
Connection ~ 5900 1550
$Comp
L power:Earth #PWR0104
U 1 1 5F228E60
P 5650 2000
F 0 "#PWR0104" H 5650 1750 50  0001 C CNN
F 1 "Earth" H 5650 1850 50  0001 C CNN
F 2 "" H 5650 2000 50  0001 C CNN
F 3 "~" H 5650 2000 50  0001 C CNN
	1    5650 2000
	1    0    0    -1  
$EndComp
Wire Wire Line
	5650 2000 5650 1900
$Comp
L Device:CP C2
U 1 1 5F22A5B7
P 4800 2450
F 0 "C2" H 4918 2496 50  0000 L CNN
F 1 "3300µF" H 4918 2405 50  0000 L CNN
F 2 "Capacitor_THT:C_Radial_D18.0mm_H35.5mm_P7.50mm" H 4838 2300 50  0001 C CNN
F 3 "~" H 4800 2450 50  0001 C CNN
	1    4800 2450
	1    0    0    -1  
$EndComp
$Comp
L Device:CP C3
U 1 1 5F22AC7E
P 3600 2450
F 0 "C3" H 3718 2496 50  0000 L CNN
F 1 "3300µF" H 3718 2405 50  0000 L CNN
F 2 "Capacitor_THT:C_Radial_D18.0mm_H35.5mm_P7.50mm" H 3638 2300 50  0001 C CNN
F 3 "~" H 3600 2450 50  0001 C CNN
	1    3600 2450
	1    0    0    -1  
$EndComp
$Comp
L Device:CP C5
U 1 1 5F22B31A
P 4800 3100
F 0 "C5" H 4918 3146 50  0000 L CNN
F 1 "3300µF" H 4918 3055 50  0000 L CNN
F 2 "Capacitor_THT:C_Radial_D18.0mm_H35.5mm_P7.50mm" H 4838 2950 50  0001 C CNN
F 3 "~" H 4800 3100 50  0001 C CNN
	1    4800 3100
	1    0    0    -1  
$EndComp
$Comp
L Device:CP C6
U 1 1 5F22B8ED
P 3600 3050
F 0 "C6" H 3718 3096 50  0000 L CNN
F 1 "3300µF" H 3718 3005 50  0000 L CNN
F 2 "Capacitor_THT:C_Radial_D18.0mm_H35.5mm_P7.50mm" H 3638 2900 50  0001 C CNN
F 3 "~" H 3600 3050 50  0001 C CNN
	1    3600 3050
	1    0    0    -1  
$EndComp
$Comp
L Device:CP C1
U 1 1 5F22E2F8
P 4200 2450
F 0 "C1" H 4318 2496 50  0000 L CNN
F 1 "3300µF" H 4318 2405 50  0000 L CNN
F 2 "Capacitor_THT:C_Radial_D18.0mm_H35.5mm_P7.50mm" H 4238 2300 50  0001 C CNN
F 3 "~" H 4200 2450 50  0001 C CNN
	1    4200 2450
	1    0    0    -1  
$EndComp
$Comp
L Device:CP C4
U 1 1 5F22E2FE
P 4200 3100
F 0 "C4" H 4318 3146 50  0000 L CNN
F 1 "3300µF" H 4318 3055 50  0000 L CNN
F 2 "Capacitor_THT:C_Radial_D18.0mm_H35.5mm_P7.50mm" H 4238 2950 50  0001 C CNN
F 3 "~" H 4200 3100 50  0001 C CNN
	1    4200 3100
	1    0    0    -1  
$EndComp
Wire Wire Line
	4200 2600 4200 2750
Wire Wire Line
	4200 2300 4200 2200
Wire Wire Line
	4200 2200 4800 2200
Wire Wire Line
	5400 2200 5400 2300
Wire Wire Line
	5400 2600 5400 2750
Wire Wire Line
	4800 2600 4800 2750
Wire Wire Line
	4800 2300 4800 2200
Connection ~ 4800 2200
Wire Wire Line
	4800 2200 5400 2200
Wire Wire Line
	4200 3250 4200 3350
Wire Wire Line
	4200 3350 4800 3350
Wire Wire Line
	5400 3350 5400 3250
Wire Wire Line
	4800 3250 4800 3350
Connection ~ 4800 3350
Wire Wire Line
	4800 3350 5400 3350
Wire Wire Line
	4200 2750 4800 2750
Connection ~ 4200 2750
Wire Wire Line
	4200 2750 4200 2950
Connection ~ 4800 2750
Wire Wire Line
	4800 2750 4800 2950
Wire Wire Line
	4800 2750 5400 2750
Connection ~ 5400 2750
Wire Wire Line
	5400 2750 5400 2950
$Comp
L power:Earth #PWR0105
U 1 1 5F2452CD
P 5500 2800
F 0 "#PWR0105" H 5500 2550 50  0001 C CNN
F 1 "Earth" H 5500 2650 50  0001 C CNN
F 2 "" H 5500 2800 50  0001 C CNN
F 3 "~" H 5500 2800 50  0001 C CNN
	1    5500 2800
	1    0    0    -1  
$EndComp
Wire Wire Line
	5500 2800 5500 2750
Wire Wire Line
	5500 2750 5400 2750
Wire Wire Line
	5400 3350 5400 4000
Connection ~ 5400 3350
Connection ~ 5650 4000
Wire Wire Line
	5400 2200 5400 1550
Connection ~ 5400 2200
Connection ~ 5650 1550
Wire Wire Line
	5650 1550 5900 1550
Wire Wire Line
	5400 1550 5650 1550
Wire Wire Line
	5400 4000 5650 4000
$Comp
L Device:Transformer_1P_2S T1
U 1 1 5F288143
P 1700 2750
F 0 "T1" H 1700 3331 50  0000 C CNN
F 1 "2x12V_24VA" H 1700 3240 50  0000 C CNN
F 2 "project_lib:trafo" H 1700 2750 50  0001 C CNN
F 3 "~" H 1700 2750 50  0001 C CNN
	1    1700 2750
	1    0    0    -1  
$EndComp
Wire Wire Line
	2100 2650 2150 2650
Wire Wire Line
	2150 2650 2150 2750
Wire Wire Line
	2150 2850 2100 2850
$Comp
L power:Earth #PWR0106
U 1 1 5F28EA48
P 2250 2800
F 0 "#PWR0106" H 2250 2550 50  0001 C CNN
F 1 "Earth" H 2250 2650 50  0001 C CNN
F 2 "" H 2250 2800 50  0001 C CNN
F 3 "~" H 2250 2800 50  0001 C CNN
	1    2250 2800
	1    0    0    -1  
$EndComp
Wire Wire Line
	2250 2800 2250 2750
Wire Wire Line
	2250 2750 2150 2750
Connection ~ 2150 2750
Wire Wire Line
	2150 2750 2150 2850
$Comp
L Device:Fuse F1
U 1 1 5F2969C5
P 2350 2350
F 0 "F1" V 2153 2350 50  0000 C CNN
F 1 "Fuse" V 2244 2350 50  0000 C CNN
F 2 "Fuse:Fuseholder_Cylinder-5x20mm_Stelvio-Kontek_PTF78_Horizontal_Open" V 2280 2350 50  0001 C CNN
F 3 "~" H 2350 2350 50  0001 C CNN
	1    2350 2350
	0    1    1    0   
$EndComp
$Comp
L Device:Fuse F2
U 1 1 5F297493
P 2350 3150
F 0 "F2" V 2153 3150 50  0000 C CNN
F 1 "T1,5A250V" V 2244 3150 50  0000 C CNN
F 2 "Fuse:Fuseholder_Cylinder-5x20mm_Stelvio-Kontek_PTF78_Horizontal_Open" V 2280 3150 50  0001 C CNN
F 3 "~" H 2350 3150 50  0001 C CNN
	1    2350 3150
	0    1    1    0   
$EndComp
Wire Wire Line
	2200 3150 2100 3150
Wire Wire Line
	2200 2350 2100 2350
$Comp
L Device:D_Bridge_-AA+ D1
U 1 1 5F2A0F53
P 2950 2750
F 0 "D1" H 3100 3000 50  0000 L CNN
F 1 "RS503" H 3100 2550 50  0000 L CNN
F 2 "project_lib:Gleichrichter" H 2950 2750 50  0001 C CNN
F 3 "~" H 2950 2750 50  0001 C CNN
	1    2950 2750
	1    0    0    -1  
$EndComp
Wire Wire Line
	2950 2450 2950 2350
Wire Wire Line
	2950 2350 2500 2350
Wire Wire Line
	2950 3050 2950 3150
Wire Wire Line
	2950 3150 2500 3150
Wire Wire Line
	2650 2750 2600 2750
Wire Wire Line
	2600 2750 2600 3350
Connection ~ 4200 3350
Wire Wire Line
	3250 2750 3300 2750
Wire Wire Line
	3300 2750 3300 2200
Wire Wire Line
	3300 2200 3600 2200
Connection ~ 4200 2200
$Comp
L Device:CP C8
U 1 1 5F2BDFBB
P 7100 1750
F 0 "C8" H 7218 1796 50  0000 L CNN
F 1 "10µF" H 7218 1705 50  0000 L CNN
F 2 "Capacitor_THT:C_Radial_D6.3mm_H5.0mm_P2.50mm" H 7138 1600 50  0001 C CNN
F 3 "~" H 7100 1750 50  0001 C CNN
	1    7100 1750
	1    0    0    -1  
$EndComp
Wire Wire Line
	7500 1900 7100 1900
Connection ~ 7100 1900
Wire Wire Line
	7500 1600 7500 1550
Wire Wire Line
	6650 1550 7100 1550
Connection ~ 7100 1550
Wire Wire Line
	7100 1550 7500 1550
$Comp
L Device:CP C11
U 1 1 5F2CCCAB
P 7100 4200
F 0 "C11" H 6982 4154 50  0000 R CNN
F 1 "10µF" H 6982 4245 50  0000 R CNN
F 2 "Capacitor_THT:C_Radial_D6.3mm_H5.0mm_P2.50mm" H 7138 4050 50  0001 C CNN
F 3 "~" H 7100 4200 50  0001 C CNN
	1    7100 4200
	-1   0    0    1   
$EndComp
Wire Wire Line
	7500 4050 7500 4000
Wire Wire Line
	7500 4000 7100 4000
Connection ~ 7100 4000
Wire Wire Line
	7100 4400 7500 4400
Wire Wire Line
	7500 4400 7500 4350
Connection ~ 7100 4400
$Comp
L Connector:Conn_01x04_Male J1
U 1 1 5F2DC93E
P 8650 2750
F 0 "J1" H 8622 2724 50  0000 R CNN
F 1 "Conn_01x04_Male" H 8622 2633 50  0000 R CNN
F 2 "project_lib:Klemme" H 8650 2750 50  0001 C CNN
F 3 "~" H 8650 2750 50  0001 C CNN
	1    8650 2750
	-1   0    0    -1  
$EndComp
Wire Wire Line
	7500 1550 8350 1550
Wire Wire Line
	8350 1550 8350 2650
Wire Wire Line
	8350 2650 8450 2650
Connection ~ 7500 1550
Wire Wire Line
	7500 4000 8350 4000
Wire Wire Line
	8350 4000 8350 2950
Wire Wire Line
	8350 2950 8450 2950
Connection ~ 7500 4000
Wire Wire Line
	8450 2850 8350 2850
Wire Wire Line
	8350 2750 8450 2750
Wire Wire Line
	7850 2800 7850 2850
$Comp
L power:Earth #PWR0107
U 1 1 5F2ECDA7
P 7850 2850
F 0 "#PWR0107" H 7850 2600 50  0001 C CNN
F 1 "Earth" H 7850 2700 50  0001 C CNN
F 2 "" H 7850 2850 50  0001 C CNN
F 3 "~" H 7850 2850 50  0001 C CNN
	1    7850 2850
	1    0    0    -1  
$EndComp
$Comp
L Device:R R5
U 1 1 5F3E1D7A
P 5400 2450
F 0 "R5" H 5470 2496 50  0000 L CNN
F 1 "2K2 1W" H 5470 2405 50  0000 L CNN
F 2 "Resistor_THT:R_Axial_DIN0207_L6.3mm_D2.5mm_P10.16mm_Horizontal" V 5330 2450 50  0001 C CNN
F 3 "~" H 5400 2450 50  0001 C CNN
	1    5400 2450
	1    0    0    -1  
$EndComp
$Comp
L Device:R R6
U 1 1 5F3E24EF
P 5400 3100
F 0 "R6" H 5470 3146 50  0000 L CNN
F 1 "2k2 1W" H 5470 3055 50  0000 L CNN
F 2 "Resistor_THT:R_Axial_DIN0207_L6.3mm_D2.5mm_P10.16mm_Horizontal" V 5330 3100 50  0001 C CNN
F 3 "~" H 5400 3100 50  0001 C CNN
	1    5400 3100
	1    0    0    -1  
$EndComp
Wire Wire Line
	3600 2200 3600 2300
Wire Wire Line
	3600 3200 3600 3350
Wire Wire Line
	2600 3350 3600 3350
Connection ~ 3600 3350
Wire Wire Line
	3600 3350 4200 3350
Connection ~ 3600 2200
Wire Wire Line
	3600 2200 4200 2200
Wire Wire Line
	3600 2600 3600 2750
Wire Wire Line
	3600 2750 4200 2750
Connection ~ 3600 2750
Wire Wire Line
	3600 2750 3600 2900
Text Label 8050 2650 0    50   ~ 0
+12V
Text Label 8050 2950 0    50   ~ 0
-12V
Wire Wire Line
	8350 2750 8350 2800
Wire Wire Line
	8350 2650 8050 2650
Connection ~ 8350 2650
Wire Wire Line
	8050 2950 8350 2950
Connection ~ 8350 2950
Wire Wire Line
	7850 2800 8350 2800
Connection ~ 8350 2800
Wire Wire Line
	8350 2800 8350 2850
$EndSCHEMATC
